{"results":[{"id":3322907,"adult":false},{"id":83905,"adult":false},{"id":4126096,"adult":false},{"id":20222,"adult":false},{"id":228528,"adult":false},{"id":1289075,"adult":false},{"id":1608715,"adult":false},{"id":4126097,"adult":false},{"id":1082276,"adult":false},{"id":4126098,"adult":false},{"id":4126099,"adult":false},{"id":4115752,"adult":false},{"id":135020,"adult":false},{"id":4126100,"adult":false},{"id":1241472,"adult":false},{"id":4126101,"adult":false},{"id":4126102,"adult":false},{"id":4126103,"adult":false},{"id":4126104,"adult":false},{"id":4126105,"adult":false},{"id":4126106,"adult":false},{"id":4126107,"adult":false},{"id":1260127,"adult":false},{"id":4126108,"adult":false},{"id":2988390,"adult":false},{"id":4126109,"adult":false},{"id":4126110,"adult":false},{"id":4126111,"adult":false},{"id":4126112,"adult":false},{"id":4126113,"adult":false},{"id":4126114,"adult":false},{"id":3830847,"adult":false},{"id":1119395,"adult":false},{"id":4126115,"adult":false},{"id":4126116,"adult":false},{"id":4126117,"adult":false},{"id":4126118,"adult":false},{"id":4126119,"adult":false},{"id":1143363,"adult":false},{"id":4126120,"adult":false},{"id":4126121,"adult":false},{"id":4126122,"adult":false},{"id":4126123,"adult":false},{"id":4126124,"adult":false},{"id":570953,"adult":false},{"id":4126125,"adult":false},{"id":4126126,"adult":true},{"id":4126127,"adult":false},{"id":1724571,"adult":false},{"id":4126128,"adult":false},{"id":3922580,"adult":false},{"id":4126129,"adult":false},{"id":4126130,"adult":false},{"id":1198686,"adult":false},{"id":4126131,"adult":false},{"id":4126132,"adult":false},{"id":4126133,"adult":false},{"id":4126134,"adult":false},{"id":4126135,"adult":false},{"id":4126136,"adult":false},{"id":1660435,"adult":false},{"id":4126137,"adult":false},{"id":4126138,"adult":false},{"id":4126139,"adult":false},{"id":4126140,"adult":false},{"id":4126141,"adult":false},{"id":4126142,"adult":false},{"id":4126143,"adult":false},{"id":4126144,"adult":false},{"id":4126145,"adult":false},{"id":4126146,"adult":false},{"id":4126147,"adult":false},{"id":4126148,"adult":false},{"id":4126149,"adult":false},{"id":4126150,"adult":false},{"id":4126151,"adult":false},{"id":4126152,"adult":false},{"id":4126153,"adult":false},{"id":4126154,"adult":false},{"id":4126155,"adult":false},{"id":4126156,"adult":false},{"id":4126157,"adult":false},{"id":4126158,"adult":false},{"id":4100547,"adult":false},{"id":4126159,"adult":false},{"id":4126160,"adult":false},{"id":4043362,"adult":false},{"id":2326803,"adult":false},{"id":4126161,"adult":false},{"id":4126162,"adult":false},{"id":40616,"adult":false},{"id":4126163,"adult":false},{"id":4126164,"adult":false},{"id":4126165,"adult":false},{"id":4126166,"adult":false},{"id":4126167,"adult":false},{"id":4126168,"adult":false},{"id":4126169,"adult":false},{"id":4126170,"adult":false},{"id":2025477,"adult":false}],"page":1,"total_pages":59,"total_results":5809}